  1.2100000e+002
 -4.1547202e+000
 -4.1200975e+000
 -4.0854748e+000
 -4.0508521e+000
 -4.0162295e+000
 -3.9816068e+000
 -3.9469841e+000
 -3.9123615e+000
 -3.8777388e+000
 -3.8431161e+000
 -3.8084935e+000
 -3.7738708e+000
 -3.7392481e+000
 -3.7046255e+000
 -3.6700028e+000
 -3.6353801e+000
 -3.6007575e+000
 -3.5661348e+000
 -3.5315121e+000
 -3.4968895e+000
 -3.4622668e+000
 -3.4276441e+000
 -3.3930215e+000
 -3.3583988e+000
 -3.3237761e+000
 -3.2891535e+000
 -3.2545308e+000
 -3.2199081e+000
 -3.1852854e+000
 -3.1506628e+000
 -3.1160401e+000
 -3.0814174e+000
 -3.0467948e+000
 -3.0121721e+000
 -2.9775494e+000
 -2.9429268e+000
 -2.9083041e+000
 -2.8736814e+000
 -2.8390588e+000
 -2.8044361e+000
 -2.7698134e+000
 -2.7351908e+000
 -2.7005681e+000
 -2.6659454e+000
 -2.6313228e+000
 -2.5967001e+000
 -2.5620774e+000
 -2.5274548e+000
 -2.4928321e+000
 -2.4582094e+000
 -2.4235868e+000
 -2.3889641e+000
 -2.3543414e+000
 -2.3197188e+000
 -2.2850961e+000
 -2.2504734e+000
 -2.2158507e+000
 -2.1812281e+000
 -2.1466054e+000
 -2.1119827e+000
 -2.0773601e+000
 -2.0427374e+000
 -2.0081147e+000
 -1.9734921e+000
 -1.9388694e+000
 -1.9042467e+000
 -1.8696241e+000
 -1.8350014e+000
 -1.8003787e+000
 -1.7657561e+000
 -1.7311334e+000
 -1.6965107e+000
 -1.6618881e+000
 -1.6272654e+000
 -1.5926427e+000
 -1.5580201e+000
 -1.5233974e+000
 -1.4887747e+000
 -1.4541521e+000
 -1.4195294e+000
 -1.3849067e+000
 -1.3502840e+000
 -1.3156614e+000
 -1.2810387e+000
 -1.2464160e+000
 -1.2117934e+000
 -1.1771707e+000
 -1.1425480e+000
 -1.1079254e+000
 -1.0733027e+000
 -1.0386800e+000
 -1.0040574e+000
 -9.6943470e-001
 -9.3481203e-001
 -9.0018937e-001
 -8.6556670e-001
 -8.3094403e-001
 -7.9632136e-001
 -7.6169869e-001
 -7.2707603e-001
 -6.9245336e-001
 -6.5783069e-001
 -6.2320802e-001
 -5.8858535e-001
 -5.5396269e-001
 -5.1934002e-001
 -4.8471735e-001
 -4.5009468e-001
 -4.1547202e-001
 -3.8084935e-001
 -3.4622668e-001
 -3.1160401e-001
 -2.7698134e-001
 -2.4235868e-001
 -2.0773601e-001
 -1.7311334e-001
 -1.3849067e-001
 -1.0386800e-001
 -6.9245336e-002
 -3.4622668e-002
  0.0000000e+000
  7.5529953e-005
  9.0668569e-005
  1.0580718e-004
  1.2098679e-004
  1.4431832e-004
  1.6764984e-004
  1.9189106e-004
  2.2707548e-004
  2.6225990e-004
  3.0104900e-004
  3.5300844e-004
  4.0496789e-004
  4.6666751e-004
  5.4186993e-004
  6.1707236e-004
  7.1401262e-004
  8.2076805e-004
  9.2853819e-004
  1.0772915e-003
  1.2260448e-003
  1.3980762e-003
  1.6016772e-003
  1.8052782e-003
  2.0714268e-003
  2.3453569e-003
  2.6563810e-003
  3.0189132e-003
  3.3827614e-003
  3.8550338e-003
  4.3273062e-003
  4.8890357e-003
  5.4950198e-003
  6.1634575e-003
  6.9298096e-003
  7.7289135e-003
  8.6847001e-003
  9.6446880e-003
  1.0820990e-002
  1.1997291e-002
  1.3408378e-002
  1.4837795e-002
  1.6524611e-002
  1.8240624e-002
  2.0254575e-002
  2.2299258e-002
  2.4688925e-002
  2.7147258e-002
  2.9922195e-002
  3.2860324e-002
  3.6050361e-002
  3.9535852e-002
  4.3169389e-002
  4.7267613e-002
  5.1558522e-002
  5.6142615e-002
  6.1152478e-002
  6.6422409e-002
  7.2020581e-002
  7.8100328e-002
  8.4505172e-002
  9.1263753e-002
  9.8418141e-002
  1.0606748e-001
  1.1411121e-001
  1.2256639e-001
  1.3144567e-001
  1.4075598e-001
  1.5049760e-001
  1.6066474e-001
  1.7124590e-001
  1.8222466e-001
  1.9363693e-001
  2.0540347e-001
  2.1752037e-001
  2.2995028e-001
  2.4266429e-001
  2.5560809e-001
  2.6871876e-001
  2.8192353e-001
  2.9512602e-001
  3.0820026e-001
  3.2096899e-001
  3.3313324e-001
  3.4388214e-001
  3.5156902e-001
  3.5450886e-001
  3.5190656e-001
  3.4393252e-001
  3.3140705e-001
  3.1542080e-001
  2.9706096e-001
  2.7726252e-001
  2.5682455e-001
  2.3638501e-001
  2.1635144e-001
  1.9703670e-001
  1.7862492e-001
  1.6125933e-001
  1.4498029e-001
  1.2991103e-001
  1.1587735e-001
  1.0298699e-001
  9.1124085e-002
  8.0222683e-002
  7.0266859e-002
  6.1196482e-002
  5.2946065e-002
  4.5457873e-002
  3.8679271e-002
  3.2560293e-002
  2.7059989e-002
  2.2142132e-002
  1.7766747e-002
  1.3905560e-002
  1.0547494e-002
  7.6460421e-003
  5.1850409e-003
  3.1522789e-003
  1.5623680e-003
  4.4869420e-004
  0.0000000e+000
